{
  "migIndex": 1,
  "data": [
    {
      "path": "src/assets/fonts/SfProDisplay-Regular.OTF",
      "sha1": "e19df199e78d296e5b6491d4832a76756532ed43"
    },
    {
      "path": "src/assets/fonts/SfProText-Bold.ttf",
      "sha1": "683902c971f8cf4619284dae418a13b217ff83e3"
    },
    {
      "path": "src/assets/fonts/SfProText-Regular.ttf",
      "sha1": "9d9fc0953860de3861f118deca4fbbbd82b450fe"
    },
    {
      "path": "src/assets/fonts/SfProText-Semibold.ttf",
      "sha1": "0d441d3bf81814bdf570d9bf04a295ea825b0857"
    },
    {
      "path": "src/assets/fonts/SfProText-Thin.ttf",
      "sha1": "d1d4a3cc3a46d9c26ff9492696e40844e65eb29b"
    },
    {
      "path": "src/assets/fonts/SfProText-Ultralight.ttf",
      "sha1": "b2e35879f70a5c3a293216ae0d6a9ba528b402c3"
    }
  ]
}
